vid4/simulation/qsim/kmap_demo.msim.vcd
$comment
	File created using the following command:
		vcd file kmap_demo.msim.vcd -direction
$end
$date
	Thu Dec 02 18:09:25 2021
$end
$version
	ModelSim Version 10.5b
$end
$timescale
	1ps
$end

$scope module kmap_demo_vlg_vec_tst $end
$var reg 1 ! A $end
$var reg 1 " B $end
$var reg 1 # C $end
$var wire 1 $ Y $end

$scope module i1 $end
$var wire 1 % gnd $end
$var wire 1 & vcc $end
$var wire 1 ' unknown $end
$var tri1 1 ( devclrn $end
$var tri1 1 ) devpor $end
$var tri1 1 * devoe $end
$var wire 1 + Y~output_o $end
$var wire 1 , A~input_o $end
$var wire 1 - C~input_o $end
$var wire 1 . B~input_o $end
$var wire 1 / inst3~combout $end
$upscope $end
$upscope $end
$enddefinitions $end
#0
$dumpvars
0!
0"
0#
0$
0%
1&
x'
1(
1)
1*
0+
0,
0-
0.
0/
$end
#100000
1!
1,
#200000
1"
0!
1.
0,
1/
1+
1$
#300000
1!
1,
#400000
1#
0"
0!
1-
0.
0,
0/
0+
0$
#500000
1!
1,
1/
1+
1$
#600000
1"
0!
1.
0,
#700000
1!
1,
#800000
0#
0"
0!
0-
0.
0,
0/
0+
0$
#900000
1!
1,
